SwimmeR
…
Formatting Swimming Times

Once results are captured in R as tidy dataframes the real fun can begin - but there’s another problem. Times in swimming are recorded as minutes:seconds.hundredth. This is fine when a time is less than a minute, because 59.99 can be of class numeric in R, but times greater than or equal to a minute 1:00.00 are stuck as class character. SwimmeR provides two functions, sec_format and mmss_format to convert between times as seconds (for doing math), and times as minutes:seconds.hundredth, for swimming-specific display.

data(King200Breast)
King200Breast
#> # A tibble: 50 x 4
#>    Event      Year      Time    Date      
#>    <chr>      <chr>     <chr>   <date>    
#>  1 200 Breast Junior    2:02.60 2018-03-17
#>  2 200 Breast Senior    2:02.90 2019-03-23
#>  3 200 Breast Sophomore 2:03.18 2017-03-18
#>  4 200 Breast Freshman  2:03.59 2016-03-19
#>  5 200 Breast Senior    2:03.60 2018-11-17
#>  6 200 Breast Sophomore 2:04.03 2017-02-18
#>  7 200 Breast Junior    2:04.68 2018-02-17
#>  8 200 Breast Senior    2:05.14 2019-02-23
#>  9 200 Breast Junior    2:05.49 2018-03-17
#> 10 200 Breast Freshman  2:05.58 2016-02-20
#> # … with 40 more rows

Included in SwimmeR is King200Breast, containing all Lilly King’s 200 Breaststroke times for her NCAA career. Times recorded as character values, in standard minutes:seconds.hundredth format. We can use sec_format to format them as seconds, and mmss_format to go back to minutes:seconds.hundredth. Both functions work well with the tidyverse packages.

King200Breast <- King200Breast %>% 
  mutate(Time_sec = sec_format(Time),
         Time_swim_2 = mmss_format(Time_sec))
King200Breast
#> # A tibble: 50 x 6
#>    Event      Year      Time    Date       Time_sec Time_swim_2
#>    <chr>      <chr>     <chr>   <date>        <dbl> <chr>      
#>  1 200 Breast Junior    2:02.60 2018-03-17     123. 2:02.60    
#>  2 200 Breast Senior    2:02.90 2019-03-23     123. 2:02.90    
#>  3 200 Breast Sophomore 2:03.18 2017-03-18     123. 2:03.18    
#>  4 200 Breast Freshman  2:03.59 2016-03-19     124. 2:03.59    
#>  5 200 Breast Senior    2:03.60 2018-11-17     124. 2:03.60    
#>  6 200 Breast Sophomore 2:04.03 2017-02-18     124. 2:04.03    
#>  7 200 Breast Junior    2:04.68 2018-02-17     125. 2:04.68    
#>  8 200 Breast Senior    2:05.14 2019-02-23     125. 2:05.14    
#>  9 200 Breast Junior    2:05.49 2018-03-17     125. 2:05.49    
#> 10 200 Breast Freshman  2:05.58 2016-02-20     126. 2:05.58    
#> # … with 40 more rows
…
